module gitlab/yongxuanzhang/gar-upload-go-binary

go 1.19

require (
	github.com/google/go-containerregistry v0.19.0
	github.com/spf13/cobra v1.8.0
	golang.org/x/oauth2 v0.16.0
)

require (
	cloud.google.com/go v0.111.0 // indirect
	cloud.google.com/go/artifactregistry v1.14.7 // indirect
	cloud.google.com/go/compute v1.23.3 // indirect
	cloud.google.com/go/compute/metadata v0.2.3 // indirect
	cloud.google.com/go/iam v1.1.5 // indirect
	cloud.google.com/go/longrunning v0.5.4 // indirect
	github.com/containerd/stargz-snapshotter/estargz v0.14.3 // indirect
	github.com/docker/cli v24.0.0+incompatible // indirect
	github.com/docker/distribution v2.8.2+incompatible // indirect
	github.com/docker/docker v24.0.0+incompatible // indirect
	github.com/docker/docker-credential-helpers v0.7.0 // indirect
	github.com/felixge/httpsnoop v1.0.4 // indirect
	github.com/go-logr/logr v1.4.1 // indirect
	github.com/go-logr/stdr v1.2.2 // indirect
	github.com/golang/groupcache v0.0.0-20210331224755-41bb18bfe9da // indirect
	github.com/golang/protobuf v1.5.3 // indirect
	github.com/google/go-cmp v0.6.0 // indirect
	github.com/google/s2a-go v0.1.7 // indirect
	github.com/googleapis/enterprise-certificate-proxy v0.3.2 // indirect
	github.com/googleapis/gax-go/v2 v2.12.0 // indirect
	github.com/inconshreveable/mousetrap v1.1.0 // indirect
	github.com/klauspost/compress v1.16.5 // indirect
	github.com/mitchellh/go-homedir v1.1.0 // indirect
	github.com/opencontainers/go-digest v1.0.0 // indirect
	github.com/opencontainers/image-spec v1.1.0-rc3 // indirect
	github.com/pkg/errors v0.9.1 // indirect
	github.com/sirupsen/logrus v1.9.1 // indirect
	github.com/spf13/pflag v1.0.5 // indirect
	github.com/vbatts/tar-split v0.11.3 // indirect
	go.opencensus.io v0.24.0 // indirect
	go.opentelemetry.io/contrib/instrumentation/google.golang.org/grpc/otelgrpc v0.47.0 // indirect
	go.opentelemetry.io/contrib/instrumentation/net/http/otelhttp v0.47.0 // indirect
	go.opentelemetry.io/otel v1.22.0 // indirect
	go.opentelemetry.io/otel/metric v1.22.0 // indirect
	go.opentelemetry.io/otel/trace v1.22.0 // indirect
	golang.org/x/crypto v0.18.0 // indirect
	golang.org/x/net v0.20.0 // indirect
	golang.org/x/sync v0.6.0 // indirect
	golang.org/x/sys v0.16.0 // indirect
	golang.org/x/text v0.14.0 // indirect
	golang.org/x/time v0.5.0 // indirect
	google.golang.org/api v0.160.0 // indirect
	google.golang.org/appengine v1.6.8 // indirect
	google.golang.org/genproto v0.0.0-20240116215550-a9fa1716bcac // indirect
	google.golang.org/genproto/googleapis/api v0.0.0-20240125205218-1f4bbc51befe // indirect
	google.golang.org/genproto/googleapis/rpc v0.0.0-20240125205218-1f4bbc51befe // indirect
	google.golang.org/grpc v1.61.0 // indirect
	google.golang.org/protobuf v1.32.0 // indirect
)
